<?xml version="1.0" encoding="UTF-8"?>
<!-- Generator: Adobe Illustrator 24.3.0, SVG Export Plug-In . SVG Version: 6.00 Build 0)  -->
<svg width="300px" height="300px" xmlns="http://www.w3.org/2000/svg" xmlns:xlink="http://www.w3.org/1999/xlink" version="1.1" id="Layer_1" x="0px" y="0px" viewBox="0 0 100 100" style="enable-background:new 0 0 100 100;" xml:space="preserve">
<style type="text/css">
	.st0{fill:#858789;}
	.st1{fill:#EF7A22;}
	.st2{fill:#00B2CA;}
	.st3{fill:#FFFFFF;}
</style>
<g>
	<path class="st0" d="M3.49,30.57h42.97v42.97H33.47c0.86,2.45,3.76,7.15,7.25,8.29c-5.26-0.22-14.22-6.22-17.75-8.29H3.49V30.57"></path>
</g>
<g>
	<path class="st1" d="M19.38,30.66c2.02-9.97,12.77-17.58,25.72-17.58c14.39,0,26.05,9.4,26.05,21c0,11.6-11.66,21-26.05,21   c-0.69,0-1.37-0.02-2.05-0.06c-0.76,0.46-2.23,1.33-4.06,2.31c-0.33-1.08-2.47-6.57,3.21-9.38c-3.66-8.78,4.15-10.11,4.15-10.11   v-7.17H19.38"></path>
</g>
<g>
	<path class="st2" d="M42.18,60.33c-1.45-0.58-2.51-1.68-3.16-3.01c1.83-0.98,3.29-1.85,4.05-2.31c0.68,0.04,1.36,0.06,2.04,0.06   c14.39,0,26.06-9.4,26.06-21c0-1.06-0.1-2.11-0.29-3.12c1.33,0.43,2.77,1.32,4.37,2.85c0,0,9.42-5.05,12.11,4.02   c0,0,10.86-0.6,6.63,10.14c5.18,1.71,5.84,9.6,0,12.38c4.23,10.73-6.63,10.14-6.63,10.14c-2.69,9.06-12.11,4.01-12.11,4.01   c-2.79,2.66-5.09,3.38-7.16,3.16c-0.98,0.1-2.02,0-3.14-0.43c-4.28,3.94-10.88,9.49-15.15,10.28c3.72-2.09,6.29-8.4,7.74-11.98   c-3,0.76-7,0.8-8.73-5.04C48.81,70.47,37.95,71.06,42.18,60.33"></path>
</g>
<g>
	<path class="st3" d="M25.68,63.01l-0.3-1.64c3.82-1.25,6.77-5.44,8.08-7.6c-9.31-3.62-15.27-11.26-15.27-19.7   c0-12.04,12.07-21.84,26.91-21.84c14.83,0,26.9,9.8,26.9,21.84c0,12.04-12.06,21.84-26.9,21.84c-0.62,0-1.24-0.02-1.84-0.05   C40.3,57.65,31.34,62.77,25.68,63.01z M45.1,13.92c-13.91,0-25.22,9.04-25.22,20.16c0,7.99,5.92,15.25,15.1,18.46l0.94,0.33   l-0.48,0.87c-0.82,1.48-2.58,4.32-5.07,6.54c3.92-1.33,8.53-3.73,12.25-5.99l0.23-0.14l0.26,0.02c0.66,0.04,1.32,0.06,2,0.06   c13.91,0,25.22-9.04,25.22-20.16S59.01,13.92,45.1,13.92z"></path>
</g>
<g>
	<path class="st3" d="M49.94,88.32l-0.57-1.56c3.04-1.72,5.34-6.66,6.79-10.13c-3.92,0.49-6.6-1.32-7.98-5.32   c-1.47-0.04-5.05-0.42-6.83-3.04c-1.26-1.85-1.34-4.37-0.25-7.52c-2.31-1.29-3.77-4.01-3.7-7.01c0.07-2.83,1.45-5.15,3.69-6.26   c-1.08-3.13-1-5.64,0.26-7.48c1.78-2.61,5.36-2.99,6.83-3.04c1.56-4.46,4.77-5.42,7.23-5.42c2.28,0,4.38,0.81,5.34,1.24   c2.53-2.28,5.01-3.24,7.41-2.99c0.08-0.03,0.34-0.04,0.6-0.04c2.19,0,4.36,0.99,6.62,3.04c0.97-0.44,3.07-1.24,5.34-1.24   c2.47,0,5.67,0.96,7.24,5.42c1.47,0.04,5.05,0.42,6.82,3.04c1.26,1.84,1.35,4.35,0.27,7.48c2.23,1.08,3.73,3.35,3.89,5.99   c0.19,3-1.29,5.71-3.91,7.25c1.11,3.15,1.03,5.69-0.24,7.55c-1.77,2.61-5.36,2.99-6.83,3.04c-1.56,4.46-4.77,5.42-7.24,5.42   c-2.27,0-4.37-0.81-5.34-1.24c-2.53,2.29-5.01,3.25-7.4,2.99c-0.08,0.02-0.34,0.04-0.61,0.04c-0.74,0-1.5-0.12-2.25-0.35   C58.45,84.27,53.33,87.69,49.94,88.32z M58.93,74.29l-0.62,1.54c-0.98,2.42-2.53,6.26-4.69,9.17c2.88-1.67,6.51-4.51,10.75-8.41   l0.38-0.35l0.49,0.19c0.93,0.36,1.85,0.48,2.75,0.38c0.37,0.02,0.58,0.03,0.78,0.03c1.88,0,3.8-0.97,5.89-2.96l0.45-0.42l0.53,0.29   c0.03,0.01,2.48,1.31,5.09,1.31c2.92,0,4.87-1.62,5.82-4.82l0.19-0.64l0.92,0.04c0.98,0,4.29-0.17,5.75-2.31   c1.02-1.5,0.96-3.75-0.2-6.69l-0.29-0.73l0.71-0.34c2.87-1.37,3.77-3.99,3.64-5.99c-0.14-2.31-1.5-4.16-3.54-4.83l-0.84-0.28   l0.33-0.82c1.16-2.94,1.22-5.19,0.2-6.69c-1.46-2.14-4.77-2.31-5.75-2.31l-0.91,0.04l-0.19-0.63c-0.95-3.2-2.91-4.82-5.82-4.82   c-2.61,0-5.07,1.3-5.09,1.31l-0.54,0.29l-0.45-0.42c-2.31-2.21-4.47-3.15-6.49-2.93c-0.37-0.02-0.57-0.04-0.78-0.04   c-1.88,0-3.8,0.97-5.9,2.97l-0.44,0.42l-0.54-0.29c-0.03-0.02-2.48-1.31-5.1-1.31c-2.91,0-4.87,1.62-5.82,4.82l-0.19,0.63   l-0.92-0.04c-0.98,0-4.29,0.16-5.75,2.31c-1.02,1.5-0.95,3.75,0.2,6.69l0.32,0.82l-0.83,0.29c-2.4,0.82-3.3,3.14-3.35,5.04   c-0.05,2.18,0.97,4.8,3.39,5.76l0.78,0.31l-0.31,0.78c-1.15,2.94-1.22,5.18-0.2,6.69c1.46,2.14,4.76,2.31,5.75,2.31l0.91-0.04   l0.19,0.64c0.96,3.23,2.72,4.8,5.37,4.8c0.71,0,1.49-0.11,2.37-0.33L58.93,74.29z"></path>
</g>
<g>
	<path class="st3" d="M40.68,82.67c-4.7-0.2-11.94-4.62-16.26-7.26c-0.64-0.39-1.21-0.74-1.7-1.03H2.66V29.73H47.3v44.65H34.74   c1.12,2.35,3.52,5.76,6.24,6.65L40.68,82.67z M4.33,72.7h18.86l0.2,0.12c0.53,0.31,1.18,0.71,1.92,1.16   c2.98,1.82,7.38,4.51,11.22,5.98c-1.96-2.05-3.33-4.68-3.84-6.13l-0.39-1.12h13.33V31.41H4.33V72.7z"></path>
</g>
</svg>
