{
  "buttons": [
    "html",
    "formatting",
    "bold",
    "italic",
    "unorderedlist",
    "orderedlist",
    "link"
  ],
  "formatting": ["p", "h2", "h3", "h4", "h5"],
  "plugins": [
    "fullscreen", "table"
  ],
  "linkNewTab": true,
  "toolbarFixed": true
}
