<svg width="32" height="32" viewBox="0 0 32 32" fill="none" xmlns="http://www.w3.org/2000/svg">
<path opacity="0.4" fill-rule="evenodd" clip-rule="evenodd" d="M16 0C7.163 0 0 7.163 0 16C0 24.836 7.163 32 16 32C24.836 32 32 24.836 32 16C32 7.163 24.836 0 16 0Z" fill="#555555"/>
<path d="M22.3438 12.75C22.9688 12.2812 23.5312 11.7188 24 11.0312C23.375 11.3125 22.75 11.5 22.125 11.5625C22.8125 11.125 23.3125 10.5312 23.5625 9.75C22.9062 10.125 22.2188 10.4062 21.4688 10.5312C21.1562 10.2188 20.7812 9.96875 20.375 9.78125C19.9688 9.59375 19.5312 9.5 19.0625 9.5C18.4688 9.5 17.9375 9.65625 17.4375 9.9375C16.9375 10.25 16.5312 10.6562 16.25 11.1562C15.9375 11.6562 15.8125 12.2188 15.8125 12.7812C15.8125 13.0312 15.8125 13.2812 15.875 13.5312C14.5312 13.4688 13.2812 13.1562 12.0938 12.5312C10.9062 11.9375 9.9375 11.125 9.125 10.0938C8.8125 10.625 8.65625 11.1875 8.65625 11.75C8.65625 12.3125 8.78125 12.8438 9.0625 13.3125C9.3125 13.8125 9.6875 14.1875 10.125 14.5C9.59375 14.5 9.09375 14.3438 8.65625 14.0625V14.125C8.65625 14.9062 8.90625 15.5938 9.40625 16.1875C9.90625 16.8125 10.5312 17.1875 11.2812 17.3438C10.9688 17.4062 10.6875 17.4375 10.4062 17.4375C10.2188 17.4375 10 17.4375 9.8125 17.4062C10 18.0625 10.375 18.5938 10.9375 19.0312C11.5 19.4688 12.125 19.6562 12.875 19.6562C11.6562 20.5938 10.2812 21.0625 8.78125 21.0625C8.46875 21.0625 8.21875 21.0625 8 21.0312C9.5 22.0312 11.1875 22.5 13.0312 22.5C14.9375 22.5 16.625 22.0312 18.125 21.0312C19.4688 20.1562 20.5312 19 21.2812 17.5C22 16.125 22.375 14.6562 22.375 13.1562C22.375 12.9688 22.3438 12.8438 22.3438 12.75Z" fill="white"/>
</svg>
