<svg width="32" height="32" viewBox="0 0 32 32" fill="none" xmlns="http://www.w3.org/2000/svg">
<path opacity="0.4" fill-rule="evenodd" clip-rule="evenodd" d="M16 0C7.163 0 0 7.163 0 16C0 24.836 7.163 32 16 32C24.836 32 32 24.836 32 16C32 7.163 24.836 0 16 0Z" fill="#555555"/>
<path fill-rule="evenodd" clip-rule="evenodd" d="M24.0001 23.9848H20.6851V18.7968C20.6851 17.5598 20.6631 15.9688 18.9621 15.9688C17.2371 15.9688 16.9741 17.3168 16.9741 18.7088V23.9848H13.6621V13.3168H16.8401V14.7758H16.8861C17.3281 13.9368 18.4101 13.0518 20.0231 13.0518C23.3801 13.0518 24.0001 15.2608 24.0001 18.1338V23.9848Z" fill="white"/>
<path fill-rule="evenodd" clip-rule="evenodd" d="M9.924 11.8597C8.859 11.8597 8 10.9977 8 9.93667C8 8.87567 8.859 8.01367 9.924 8.01367C10.984 8.01367 11.845 8.87567 11.845 9.93667C11.845 10.9977 10.984 11.8597 9.924 11.8597Z" fill="white"/>
<path fill-rule="evenodd" clip-rule="evenodd" d="M11.5817 23.9854H8.2627V13.3174H11.5817V23.9854Z" fill="white"/>
</svg>
