<svg width="32" height="32" viewBox="0 0 32 32" fill="none" xmlns="http://www.w3.org/2000/svg">
<path opacity="0.4" fill-rule="evenodd" clip-rule="evenodd" d="M16 0C7.163 0 0 7.163 0 16C0 24.836 7.163 32 16 32C24.836 32 32 24.836 32 16C32 7.163 24.836 0 16 0Z" fill="#555555"/>
<path d="M18.6487 10.657L20.1547 10.656V8.112C19.8937 8.077 18.9997 8 17.9597 8C15.7887 8 14.3017 9.325 14.3017 11.76V13.857H11.8457V16.702H14.3017V24H17.2387V16.702H19.6887L20.0557 13.857H17.2387V12.041C17.2387 11.218 17.4677 10.657 18.6487 10.657Z" fill="white"/>
</svg>
